<?xml version="1.0" standalone="no"?>
<!DOCTYPE svg PUBLIC "-//W3C//DTD SVG 1.1//EN" "http://www.w3.org/Graphics/SVG/1.1/DTD/svg11.dtd" >
<svg xmlns="http://www.w3.org/2000/svg" xmlns:xlink="http://www.w3.org/1999/xlink" version="1.1" viewBox="-10 0 265 256">
  <g transform="matrix(1 0 0 -1 0 220)">
   <path fill="currentColor"
d="M16 113v-46q1 0 6 -20q13 -31 38 -50q8 -13 64 -22h16q40 7 64 26q32 32 40 72v30q0 4 -2 8q-11 55 -58 82l-30 10h-54v-2q-26 -6 -44 -20q-33 -29 -38 -62q-2 -3 -2 -6zM130 199q1 0 2 -2l28 -4l12 -4q19 -7 42 -34q13 -9 22 -63v-8q-1 -3 -6 -29q-15 -47 -66 -66
q-6 -1 -29 -6h-8q-54 9 -63 22q-16 7 -40 58v52q12 37 32 54q28 26 72 28q1 2 2 2zM44 101v-20q8 -35 24 -50q24 -24 48 -24h24q26 3 44 18q22 20 28 48v36q0 3 -2 6l-4 12q-14 20 -14 24h-8v8q-24 12 -48 16h-24v-2q-16 -2 -32 -12q-27 -17 -34 -54q-2 -3 -2 -6zM116 167
h28q12 -7 24 -10l8 -8q4 -2 8 -2q0 -4 2 -8q15 -18 18 -28v-40l-12 -24v-4h-8q0 -3 -4 -10q-6 -7 -36 -18h-36l-36 20v4q-5 4 -14 24q-1 5 -6 22v6q3 32 18 48q5 14 46 28zM112 101v-20l6 -6h20l10 10v12l-10 10h-18q-4 0 -4 -2q-2 -3 -4 -3v-1v0z" />
  </g>

</svg>
