<?xml version="1.0" standalone="no"?>
<!DOCTYPE svg PUBLIC "-//W3C//DTD SVG 1.1//EN" "http://www.w3.org/Graphics/SVG/1.1/DTD/svg11.dtd" >
<svg xmlns="http://www.w3.org/2000/svg" xmlns:xlink="http://www.w3.org/1999/xlink" version="1.1" viewBox="-10 0 265 256">
  <g transform="matrix(1 0 0 -1 0 220)">
   <path fill="currentColor"
d="M28 167v-16l12 -22l24 -10h8l24 10l12 22v16l-12 22l-24 10h-16v-2q-15 -7 -18 -10l-10 -20v0zM140 167v-16l12 -22l24 -10h8l24 10l12 22v16l-12 22l-24 10h-16v-2q-15 -7 -18 -10l-10 -20v0zM64 195h12l20 -8v-4l8 -16v-16l-8 -16v-4h-4l-20 -8h-12l-20 8v4l-8 16v16
l8 16v4h4l20 8v0zM176 195h12l20 -8v-4l8 -16v-16l-8 -16v-4h-4l-20 -8h-12l-20 8v4l-8 16v16l8 16v4h4l20 8v0zM88 99v-20q4 -13 16 -22l16 -6h8l16 6q12 9 16 22v20q-4 13 -16 22l-16 6h-16v-2q-7 -1 -18 -14l-6 -12v0zM120 123h8l16 -6q6 -3 12 -18v-20q-6 -15 -12 -18
l-16 -6h-8l-16 6q-6 3 -12 18v20q6 15 12 18l16 6v0zM28 31v-12l12 -22l24 -10h8l24 10l12 22v12l-12 22l-24 10h-16v-2q-15 -7 -18 -10l-10 -20v0zM140 35v-16q4 -13 16 -22l16 -6h12l16 6q12 9 16 22v16q-4 13 -16 22l-16 6h-20v-2q-7 -1 -18 -14l-6 -12v0zM64 59h12
l20 -8v-4l8 -16v-12l-8 -16v-4h-4l-20 -8h-12l-20 8v4l-8 16v12l8 16v4h4l20 8v0zM172 59h12l16 -6q6 -3 12 -18v-16q-6 -15 -12 -18l-16 -6h-12l-16 6q-6 3 -12 18v16q6 15 12 18l16 6v0z" />
  </g>

</svg>
